strategic_region={
	id=14
	name="STRATEGICREGION_14"
	provinces={
		7283 7287 7299 7301 7308 7323 7336 7347 7350 7354 7368 7369 7371 7389 7391 7399 7402 7410 7419 7424 7427 7436 7437 7439 7452 7454 7456 7472 
	}
	weather={
	}
}
