
state={
	id=57
	name="STATE_57"
	provinces={
		7 17 63 145 189 273 409 449 452 463 475 530 538 597 629 720 727 795 832 837 856 908 935 938 952 979 980 988 1019 1067 1085 1094 1177 1239 1280 1283 1297 1302 1305 1306 1362 1377 1401 1405 1406 1418 1458 1529 1588 1589 1685 1720 1789 1799 1804 1805 1807 1845 1851 1865 1928 1933 1958 1970 1975 1978 2089 2167 2226 2259 2269 2283 2297 2305 2309 2316 2336 2348 2353 2368 2377 2395 2407 2440 2453 2473 2515 2534 2610 2611 2631 2632 2667 2717 2753 2783 2784 2785 2791 2832 2855 2907 2927 2992 2993 3003 3155 3232 3240 3247 3277 3328 3426 3442 3508 3532 3542 3578 3630 3694 3703 3815 3861 3894 3932 3951 3955 4014 4029 4067 4081 4092 4154 4155 4201 4220 4255 4278 4299 4391 4405 4438 4500 4580 4612 4665 4708 4757 4836 4839 4864 4887 4908 4937 4948 4952 4995 5015 5019 5056 5059 5073 5084 5101 5108 5135 5140 5162 5163 5178 5180 5181 5195 5197 5198 5217 5226 5236 5249 5256 5257 5262 5263 5293 5295 5297 5298 5309 5320 5338 5341 5387 5392 5394 5401 5408 5421 5436 5441 5461 5511 5546 5588 5629 5646 5701 7658 7659 7660 
	}
	manpower=0
	buildings_max_level_factor=1.000
	local_supplies=0.000
}
