
state={
	id=77
	name="STATE_77"
	provinces={
		494 524 685 699 1133 1195 1274 1474 1484 1581 1690 1729 1790 1825 1831 1987 2033 2044 2328 2718 2796 2816 2853 2898 2931 3248 3300 3363 3556 3660 3926 3942 3991 4008 4206 4285 4295 4503 4516 4684 4724 6528 6538 6540 6559 6580 6592 6606 6638 6650 6659 6688 6768 6780 7669 
	}
	manpower=0
	buildings_max_level_factor=1.000
	local_supplies=0.000
}
